{
  "$schema": "https://json.schemastore.org/nest-cli",
  "collection": "@nestjs/schematics",
  "sourceRoot": "apps/nest-experiment/src",
  "compilerOptions": {
    "deleteOutDir": true,
    "webpack": true,
    "tsConfigPath": "apps/nest-experiment/tsconfig.app.json"
  },
  "monorepo": true,
  "root": "apps/nest-experiment",
  "projects": {
    "nest-experiment": {
      "type": "application",
      "root": "apps/nest-experiment",
      "entryFile": "main",
      "sourceRoot": "apps/nest-experiment/src",
      "compilerOptions": {
        "tsConfigPath": "apps/nest-experiment/tsconfig.app.json"
      }
    }
  }
}